{
  "__schema": {
    "types": [
      {
        "kind": "UNION",
        "name": "FeatureContext",
        "possibleTypes": [{ "name": "Collection" }, { "name": "Community" }]
      },
      {
        "kind": "UNION",
        "name": "FollowContext",
        "possibleTypes": [
          { "name": "Collection" },
          { "name": "Community" },
          { "name": "Thread" },
          { "name": "User" }
        ]
      },
      {
        "kind": "UNION",
        "name": "LikeContext",
        "possibleTypes": [
          { "name": "Collection" },
          { "name": "Comment" },
          { "name": "Community" },
          { "name": "Resource" },
          { "name": "User" }
        ]
      },
      {
        "kind": "UNION",
        "name": "DeleteContext",
        "possibleTypes": [
          { "name": "Collection" },
          { "name": "Comment" },
          { "name": "Community" },
          { "name": "Feature" },
          { "name": "Flag" },
          { "name": "Follow" },
          { "name": "Like" },
          { "name": "Resource" },
          { "name": "Thread" },
          { "name": "User" }
        ]
      },
      {
        "kind": "UNION",
        "name": "FlagContext",
        "possibleTypes": [
          { "name": "Collection" },
          { "name": "Comment" },
          { "name": "Community" },
          { "name": "Resource" },
          { "name": "User" }
        ]
      },
      {
        "kind": "UNION",
        "name": "ThreadContext",
        "possibleTypes": [
          { "name": "Collection" },
          { "name": "Community" },
          { "name": "Flag" },
          { "name": "Resource" }
        ]
      },
      {
        "kind": "UNION",
        "name": "ActivityContext",
        "possibleTypes": [
          { "name": "Collection" },
          { "name": "Comment" },
          { "name": "Community" },
          { "name": "Flag" },
          { "name": "Follow" },
          { "name": "Like" },
          { "name": "Resource" },
          { "name": "User" }
        ]
      },
      {
        "kind": "UNION",
        "name": "UploadParent",
        "possibleTypes": [
          { "name": "Collection" },
          { "name": "Comment" },
          { "name": "Community" },
          { "name": "Resource" },
          { "name": "User" }
        ]
      }
    ]
  }
}
